{
  "resourceType": "OperationDefinition",
  "name": "searchNotifications",
  "status": "active",
  "kind": "query",
  "affectsState": false,
  "code": "searchNotifications",
  "resource": [
    "Task"
  ],
  "system": false,
  "type": true,
  "instance": false,
  "parameter": [
    {
      "name": "code",
      "use": "in",
      "min": 1,
      "max": "1",
      "type": "string",
      "searchType": "token"
    },
    {
      "name": "reasonCode",
      "use": "in",
      "min": 1,
      "max": "1",
      "type": "string",
      "searchType": "token"
    },
    {
      "name": "focus",
      "use": "in",
      "min": 1,
      "max": "1",
      "type": "string",
      "searchType": "reference"
    }
  ]
}